<?xml version="1.0" encoding="UTF-8"?>
<!DOCTYPE svg PUBLIC "-//W3C//DTD SVG 1.1//EN" "http://www.w3.org/Graphics/SVG/1.1/DTD/svg11.dtd">
<!-- Creator: CorelDRAW 2018 (64 Bit) -->
<svg xmlns="http://www.w3.org/2000/svg" xml:space="preserve" width="48px" height="50px" version="1.1" style="shape-rendering:geometricPrecision; text-rendering:geometricPrecision; image-rendering:optimizeQuality; fill-rule:evenodd; clip-rule:evenodd"
viewBox="0 0 0.09 0.093"
 xmlns:xlink="http://www.w3.org/1999/xlink">
 <defs>
  <style type="text/css">
   <![CDATA[
    .fil0 {fill:#76C04E;fill-rule:nonzero}
   ]]>
  </style>
 </defs>
 <g id="Camada_x0020_1">
  <metadata id="CorelCorpID_0Corel-Layer"/>
  <path class="fil0" d="M0.053 0.043c-0.001,0 -0.001,0 -0.001,0l-0.015 0.003c0,0 -0.001,0.001 -0.001,0.001 -0.001,0 -0.002,0.001 -0.002,0.002 0,0.005 -0.001,0.01 -0.003,0.015 0,0 0,0 0,0l-0.003 0.016c-0.001,0.004 -0.004,0.007 -0.006,0.007 -0.003,0 -0.006,-0.003 -0.007,-0.007l-0.003 -0.016c0,-0.001 -0.001,-0.002 -0.003,-0.002 -0.003,0 -0.003,0 -0.003,-0.006 0.001,-0.012 0.004,-0.016 0.008,-0.02 0.001,0 0.001,0 0.001,0 0,0 0,0 0,0 0.001,0 0.001,0 0.002,0l0.003 0.004 -0.005 0.011 0.007 0.008 0.006 -0.008 -0.004 -0.011 0.002 -0.004c0.001,0 0.002,0 0.002,0 0,0 0,0 0,0 0.001,0 0.001,0 0.001,0 0.001,0.001 0.001,0.001 0.024,0.001 0.003,0 0.003,0.003 0.003,0.003 0,0.001 0,0.003 -0.003,0.003zm-0.031 -0.031c0.005,0 0.009,0.005 0.009,0.01 0,0.005 -0.004,0.009 -0.009,0.009 -0.005,0 -0.01,-0.004 -0.01,-0.009 0,-0.005 0.005,-0.01 0.01,-0.01zm0.034 0.013l0 -0.019 0.025 0 -0.006 0.008c-0.001,0.001 -0.001,0.002 0,0.003l0.006 0.008 -0.025 0zm0.025 -0.01l0.008 -0.01c0.001,-0.001 0.001,-0.002 0,-0.003 0,-0.001 -0.001,-0.002 -0.002,-0.002l-0.034 0c-0.002,0 -0.003,0.001 -0.003,0.003l0 0.028c-0.006,0 -0.012,0 -0.016,0 0.002,-0.003 0.003,-0.006 0.003,-0.009 0,-0.009 -0.007,-0.016 -0.015,-0.016 -0.009,0 -0.016,0.007 -0.016,0.016 0,0.004 0.002,0.007 0.004,0.01 -0.006,0.005 -0.009,0.012 -0.01,0.024 0,0.005 0,0.011 0.007,0.012l0.002 0.013c0.002,0.007 0.007,0.012 0.013,0.012 0.005,0 0.01,-0.005 0.012,-0.012l0.003 -0.015c0.002,-0.004 0.003,-0.009 0.003,-0.014l0.01 -0.002 0 0.04c0,0.002 0.001,0.003 0.003,0.003 0.001,0 0.003,-0.001 0.003,-0.003l0 -0.04c0,-0.001 0,-0.001 0,-0.001 0.004,-0.001 0.006,-0.005 0.006,-0.009 0,-0.003 -0.002,-0.007 -0.006,-0.009l0 0 0.031 0c0.001,0 0.002,-0.001 0.002,-0.002 0.001,-0.001 0.001,-0.002 0,-0.003l-0.008 -0.011z"/>
 </g>
</svg>
