<?xml version="1.0" encoding="UTF-8"?>
<!DOCTYPE svg PUBLIC "-//W3C//DTD SVG 1.1//EN" "http://www.w3.org/Graphics/SVG/1.1/DTD/svg11.dtd">
<!-- Creator: CorelDRAW 2018 (64 Bit) -->
<svg xmlns="http://www.w3.org/2000/svg" xml:space="preserve" width="238px" height="42px" version="1.1" style="shape-rendering:geometricPrecision; text-rendering:geometricPrecision; image-rendering:optimizeQuality; fill-rule:evenodd; clip-rule:evenodd"
viewBox="0 0 4.967 0.886"
 xmlns:xlink="http://www.w3.org/1999/xlink">
 <defs>
  <style type="text/css">
   <![CDATA[
    .fil0 {fill:white}
    .fil2 {fill:white;fill-rule:nonzero}
    .fil1 {fill:white;fill-opacity:0.501961}
   ]]>
  </style>
 </defs>
 <g id="Camada_x0020_1">
  <metadata id="CorelCorpID_0Corel-Layer"/>
  <g id="_2663033136336">
   <g>
    <path class="fil0" d="M0.871 0.057c0.015,-0.019 0.035,-0.034 0.058,-0.043 0.023,-0.009 0.052,-0.014 0.088,-0.014 0.035,0 0.065,0.002 0.088,0.005 0.022,0.004 0.047,0.01 0.074,0.02l-0.014 0.084c-0.06,-0.008 -0.105,-0.011 -0.136,-0.011 -0.001,0 -0.001,0 -0.002,0 -0.001,0 -0.003,0 -0.007,0 -0.004,0 -0.008,0 -0.012,0 -0.003,0 -0.008,0.001 -0.014,0.002 -0.006,0.001 -0.011,0.002 -0.014,0.003 -0.003,0.002 -0.008,0.004 -0.013,0.008 -0.005,0.003 -0.009,0.008 -0.012,0.012 -0.003,0.005 -0.006,0.011 -0.011,0.019 -0.004,0.007 -0.007,0.016 -0.01,0.025 -0.003,0.011 -0.006,0.023 -0.009,0.035l-0.111 0c0.005,-0.027 0.011,-0.052 0.019,-0.074 0.009,-0.027 0.022,-0.051 0.038,-0.071z"/>
    <path class="fil0" d="M0.911 0.291c-0.001,0.008 -0.001,0.017 -0.001,0.024 0,0.018 0.002,0.033 0.006,0.043 0.009,0.022 0.03,0.033 0.064,0.034 0.002,0 0.013,0 0.032,0 0.018,0 0.055,-0.002 0.11,-0.006l-0.013 0.084c-0.023,0.008 -0.046,0.013 -0.068,0.016 -0.023,0.002 -0.044,0.003 -0.063,0.003 -0.041,0 -0.081,0.004 -0.117,-0.02 -0.02,-0.013 -0.034,-0.031 -0.043,-0.054 -0.011,-0.029 -0.016,-0.06 -0.016,-0.093 0,-0.01 0,-0.021 0.001,-0.031l0.108 0zm-0.28 -0.285c0.026,0 0.049,0.005 0.067,0.014 0.019,0.01 0.033,0.023 0.043,0.038 0.018,0.03 0.027,0.069 0.027,0.12 0,0.024 -0.002,0.052 -0.007,0.085 -0.017,0.108 -0.051,0.176 -0.101,0.203 -0.026,0.013 -0.058,0.019 -0.097,0.019l-0.208 0 0.031 -0.194 0.107 0 -0.016 0.101 0.084 0c0.025,0 0.045,-0.012 0.06,-0.036 0.014,-0.024 0.025,-0.06 0.033,-0.109 0.005,-0.036 0.007,-0.062 0.007,-0.08 0,-0.017 -0.002,-0.031 -0.007,-0.041 -0.005,-0.01 -0.012,-0.017 -0.02,-0.021 -0.008,-0.004 -0.019,-0.006 -0.031,-0.006l-0.079 0 -0.017 0.103 -0.107 0 0.031 -0.196c0,0 0.067,0 0.2,0zm-0.537 0.016c0.013,-0.006 0.025,-0.011 0.037,-0.013 0.012,-0.003 0.022,-0.004 0.03,-0.004 0.008,0 0.012,0 0.013,0 0.097,0.002 0.164,0.005 0.201,0.011l-0.014 0.09 -0.173 0c-0.022,0 -0.034,0.008 -0.038,0.025 -0.001,0.003 -0.002,0.007 -0.002,0.011l-0.008 0.053 0.174 0.007 -0.014 0.089 -0.177 0.006 -0.009 0.056c-0.002,0.017 0.001,0.027 0.009,0.03 0.007,0.003 0.016,0.004 0.027,0.004l0.167 0 -0.015 0.089c-0.031,0.004 -0.084,0.008 -0.16,0.01 -0.017,0.001 -0.033,0.001 -0.049,0.001 -0.017,0 -0.034,-0.004 -0.05,-0.011 -0.029,-0.013 -0.043,-0.038 -0.043,-0.073 0,-0.007 0,-0.015 0.001,-0.022l0.044 -0.276c0.007,-0.042 0.023,-0.069 0.049,-0.083z"/>
    <path class="fil1" d="M0.397 0.226l0.26 0c-0.001,0.007 -0.002,0.014 -0.003,0.021 -0.001,0.007 -0.002,0.013 -0.004,0.02l-0.26 0 0.007 -0.041zm0.368 0l0.156 0 -0.006 0.041 -0.155 0c0,-0.002 0.001,-0.003 0.001,-0.004 0.002,-0.013 0.003,-0.025 0.004,-0.037z"/>
   </g>
   <path class="fil2" d="M1.287 0.773l-0.044 0 0.005 -0.026 0.119 0 -0.005 0.026 -0.044 0 -0.022 0.11 -0.031 0 0.022 -0.11zm0.158 0l-0.006 0.029 0.063 0 -0.005 0.025 -0.063 0 -0.006 0.031 0.074 0 -0.005 0.025 -0.106 0 0.028 -0.136 0.102 0 -0.005 0.026 -0.071 0zm0.247 0.016c0,0.013 -0.003,0.024 -0.01,0.033 -0.007,0.009 -0.016,0.016 -0.029,0.019l0.024 0.042 -0.033 0 -0.021 -0.038 -0.027 0 -0.008 0.038 -0.031 0 0.027 -0.136 0.055 0c0.017,0 0.03,0.004 0.039,0.011 0.01,0.008 0.014,0.018 0.014,0.031zm-0.065 0.031c0.011,0 0.019,-0.002 0.025,-0.007 0.006,-0.005 0.008,-0.012 0.008,-0.021 0,-0.006 -0.002,-0.011 -0.006,-0.014 -0.005,-0.003 -0.011,-0.005 -0.019,-0.005l-0.025 0 -0.009 0.047 0.026 0zm0.179 0.066c-0.014,0 -0.026,-0.003 -0.036,-0.008 -0.01,-0.005 -0.018,-0.012 -0.023,-0.021 -0.006,-0.008 -0.009,-0.019 -0.009,-0.03 0,-0.016 0.004,-0.03 0.011,-0.042 0.007,-0.012 0.017,-0.022 0.03,-0.029 0.013,-0.007 0.027,-0.011 0.044,-0.011 0.012,0 0.023,0.002 0.032,0.006 0.009,0.004 0.017,0.01 0.021,0.018l-0.022 0.019c-0.008,-0.011 -0.019,-0.016 -0.033,-0.016 -0.01,0 -0.019,0.002 -0.027,0.007 -0.007,0.004 -0.013,0.011 -0.017,0.019 -0.005,0.008 -0.007,0.017 -0.007,0.027 0,0.01 0.004,0.018 0.01,0.025 0.007,0.006 0.016,0.009 0.028,0.009 0.015,0 0.027,-0.005 0.036,-0.016l0.019 0.019c-0.013,0.016 -0.033,0.024 -0.057,0.024zm0.159 -0.113l-0.006 0.029 0.063 0 -0.005 0.025 -0.063 0 -0.006 0.031 0.074 0 -0.005 0.025 -0.106 0 0.027 -0.136 0.103 0 -0.005 0.026 -0.071 0zm0.139 -0.026l0.031 0 -0.027 0.136 -0.032 0 0.028 -0.136zm0.207 0.042c0,0.013 -0.004,0.024 -0.011,0.033 -0.006,0.009 -0.016,0.016 -0.028,0.019l0.024 0.042 -0.034 0 -0.021 -0.038 -0.027 0 -0.007 0.038 -0.032 0 0.027 -0.136 0.055 0c0.017,0 0.03,0.004 0.04,0.011 0.009,0.008 0.014,0.018 0.014,0.031zm-0.065 0.031c0.01,0 0.018,-0.002 0.024,-0.007 0.006,-0.005 0.009,-0.012 0.009,-0.021 0,-0.006 -0.002,-0.011 -0.007,-0.014 -0.004,-0.003 -0.01,-0.005 -0.019,-0.005l-0.024 0 -0.01 0.047 0.027 0zm0.177 0.066c-0.014,0 -0.025,-0.003 -0.035,-0.008 -0.01,-0.005 -0.018,-0.012 -0.023,-0.021 -0.006,-0.008 -0.008,-0.019 -0.008,-0.03 0,-0.016 0.003,-0.03 0.01,-0.042 0.007,-0.012 0.017,-0.022 0.03,-0.029 0.013,-0.007 0.027,-0.011 0.044,-0.011 0.013,0 0.025,0.002 0.035,0.007 0.01,0.005 0.018,0.012 0.023,0.021 0.005,0.009 0.008,0.019 0.008,0.031 0,0.015 -0.003,0.029 -0.01,0.042 -0.008,0.012 -0.017,0.022 -0.03,0.029 -0.013,0.007 -0.028,0.011 -0.044,0.011zm0.003 -0.027c0.01,0 0.018,-0.003 0.026,-0.007 0.007,-0.005 0.013,-0.012 0.017,-0.02 0.004,-0.008 0.006,-0.017 0.006,-0.026 0,-0.011 -0.003,-0.019 -0.009,-0.025 -0.007,-0.006 -0.016,-0.009 -0.028,-0.009 -0.01,0 -0.019,0.002 -0.026,0.007 -0.008,0.005 -0.013,0.011 -0.017,0.019 -0.004,0.008 -0.006,0.017 -0.006,0.027 0,0.01 0.003,0.018 0.009,0.025 0.007,0.006 0.016,0.009 0.028,0.009zm0.173 0.027c-0.011,0 -0.021,-0.002 -0.031,-0.005 -0.01,-0.002 -0.018,-0.006 -0.024,-0.011l0.013 -0.024c0.006,0.005 0.013,0.008 0.021,0.011 0.008,0.002 0.016,0.003 0.024,0.003 0.008,0 0.015,-0.001 0.02,-0.004 0.005,-0.003 0.008,-0.007 0.008,-0.012 0,-0.004 -0.002,-0.007 -0.006,-0.009 -0.004,-0.002 -0.011,-0.004 -0.019,-0.007 -0.009,-0.002 -0.016,-0.005 -0.022,-0.007 -0.006,-0.003 -0.01,-0.006 -0.014,-0.011 -0.005,-0.005 -0.007,-0.011 -0.007,-0.019 0,-0.009 0.003,-0.017 0.008,-0.024 0.005,-0.007 0.012,-0.013 0.022,-0.016 0.009,-0.004 0.02,-0.006 0.033,-0.006 0.009,0 0.018,0.001 0.026,0.003 0.008,0.002 0.015,0.005 0.021,0.009l-0.012 0.024c-0.005,-0.004 -0.011,-0.006 -0.017,-0.008 -0.007,-0.002 -0.013,-0.003 -0.02,-0.003 -0.009,0 -0.016,0.002 -0.021,0.005 -0.005,0.003 -0.008,0.007 -0.008,0.012 0,0.003 0.001,0.005 0.003,0.007 0.002,0.002 0.005,0.004 0.009,0.005 0.003,0.001 0.008,0.003 0.014,0.005 0.008,0.002 0.016,0.004 0.021,0.007 0.006,0.002 0.01,0.006 0.014,0.01 0.004,0.005 0.006,0.011 0.006,0.018 0,0.01 -0.002,0.018 -0.007,0.025 -0.006,0.007 -0.013,0.012 -0.022,0.016 -0.01,0.004 -0.021,0.006 -0.033,0.006zm0.274 -0.113l-0.006 0.029 0.064 0 -0.005 0.025 -0.064 0 -0.006 0.031 0.074 0 -0.005 0.025 -0.105 0 0.027 -0.136 0.103 0 -0.005 0.026 -0.072 0zm0.272 0l-0.043 0 0.005 -0.026 0.118 0 -0.005 0.026 -0.043 0 -0.022 0.11 -0.032 0 0.022 -0.11zm0.158 0l-0.006 0.029 0.064 0 -0.005 0.025 -0.064 0 -0.006 0.031 0.074 0 -0.005 0.025 -0.105 0 0.027 -0.136 0.103 0 -0.005 0.026 -0.072 0zm0.292 -0.026l-0.027 0.136 -0.029 0 0.016 -0.081 -0.052 0.067 -0.014 0 -0.028 -0.067 -0.017 0.081 -0.029 0 0.027 -0.136 0.026 0 0.034 0.085 0.066 -0.085 0.027 0zm0.122 0c0.017,0 0.031,0.004 0.04,0.011 0.009,0.008 0.014,0.018 0.014,0.032 0,0.011 -0.003,0.021 -0.008,0.029 -0.006,0.009 -0.013,0.015 -0.023,0.02 -0.01,0.005 -0.022,0.007 -0.035,0.007l-0.031 0 -0.007 0.037 -0.032 0 0.027 -0.136 0.055 0zm-0.011 0.073c0.01,0 0.019,-0.002 0.024,-0.007 0.006,-0.005 0.009,-0.012 0.009,-0.021 0,-0.006 -0.002,-0.011 -0.007,-0.014 -0.004,-0.003 -0.01,-0.005 -0.018,-0.005l-0.025 0 -0.01 0.047 0.027 0zm0.177 0.066c-0.014,0 -0.026,-0.003 -0.036,-0.008 -0.01,-0.005 -0.017,-0.012 -0.023,-0.021 -0.005,-0.008 -0.007,-0.019 -0.007,-0.03 0,-0.016 0.003,-0.03 0.01,-0.042 0.007,-0.012 0.017,-0.022 0.03,-0.029 0.013,-0.007 0.027,-0.011 0.044,-0.011 0.013,0 0.025,0.002 0.035,0.007 0.01,0.005 0.018,0.012 0.023,0.021 0.005,0.009 0.008,0.019 0.008,0.031 0,0.015 -0.004,0.029 -0.011,0.042 -0.007,0.012 -0.017,0.022 -0.029,0.029 -0.013,0.007 -0.028,0.011 -0.044,0.011zm0.003 -0.027c0.009,0 0.018,-0.003 0.026,-0.007 0.007,-0.005 0.013,-0.012 0.017,-0.02 0.004,-0.008 0.006,-0.017 0.006,-0.026 0,-0.011 -0.003,-0.019 -0.01,-0.025 -0.006,-0.006 -0.015,-0.009 -0.027,-0.009 -0.01,0 -0.019,0.002 -0.026,0.007 -0.008,0.005 -0.014,0.011 -0.018,0.019 -0.004,0.008 -0.006,0.017 -0.006,0.027 0,0.01 0.004,0.018 0.01,0.025 0.007,0.006 0.016,0.009 0.028,0.009zm0.261 -0.07c0,0.013 -0.004,0.024 -0.01,0.033 -0.007,0.009 -0.017,0.016 -0.029,0.019l0.024 0.042 -0.034 0 -0.021 -0.038 -0.027 0 -0.007 0.038 -0.032 0 0.027 -0.136 0.056 0c0.016,0 0.029,0.004 0.039,0.011 0.009,0.008 0.014,0.018 0.014,0.031zm-0.065 0.031c0.01,0 0.019,-0.002 0.024,-0.007 0.006,-0.005 0.009,-0.012 0.009,-0.021 0,-0.006 -0.002,-0.011 -0.007,-0.014 -0.004,-0.003 -0.01,-0.005 -0.019,-0.005l-0.024 0 -0.01 0.047 0.027 0zm0.203 0.034l-0.063 0 -0.018 0.029 -0.033 0 0.088 -0.136 0.031 0 0.033 0.136 -0.031 0 -0.007 -0.029zm-0.005 -0.024l-0.011 -0.052 -0.032 0.052 0.043 0zm0.007 -0.122l0.034 0 -0.038 0.028 -0.025 0 0.029 -0.028zm0.221 0.081c0,0.013 -0.003,0.024 -0.01,0.033 -0.007,0.009 -0.017,0.016 -0.029,0.019l0.024 0.042 -0.033 0 -0.022 -0.038 -0.027 0 -0.007 0.038 -0.032 0 0.027 -0.136 0.056 0c0.017,0 0.03,0.004 0.039,0.011 0.009,0.008 0.014,0.018 0.014,0.031zm-0.065 0.031c0.011,0 0.019,-0.002 0.024,-0.007 0.006,-0.005 0.009,-0.012 0.009,-0.021 0,-0.006 -0.002,-0.011 -0.007,-0.014 -0.004,-0.003 -0.01,-0.005 -0.018,-0.005l-0.025 0 -0.01 0.047 0.027 0zm0.134 -0.073l0.032 0 -0.028 0.136 -0.031 0 0.027 -0.136zm0.142 0.139c-0.014,0 -0.026,-0.003 -0.036,-0.008 -0.01,-0.005 -0.017,-0.012 -0.023,-0.021 -0.005,-0.008 -0.008,-0.019 -0.008,-0.03 0,-0.016 0.004,-0.03 0.011,-0.042 0.007,-0.012 0.017,-0.022 0.03,-0.029 0.013,-0.007 0.027,-0.011 0.044,-0.011 0.013,0 0.025,0.002 0.035,0.007 0.01,0.005 0.018,0.012 0.023,0.021 0.005,0.009 0.008,0.019 0.008,0.031 0,0.015 -0.004,0.029 -0.011,0.042 -0.007,0.012 -0.017,0.022 -0.029,0.029 -0.013,0.007 -0.028,0.011 -0.044,0.011zm0.002 -0.027c0.01,0 0.019,-0.003 0.027,-0.007 0.007,-0.005 0.013,-0.012 0.017,-0.02 0.004,-0.008 0.006,-0.017 0.006,-0.026 0,-0.011 -0.003,-0.019 -0.01,-0.025 -0.006,-0.006 -0.015,-0.009 -0.027,-0.009 -0.01,0 -0.019,0.002 -0.026,0.007 -0.008,0.005 -0.014,0.011 -0.018,0.019 -0.004,0.008 -0.006,0.017 -0.006,0.027 0,0.01 0.004,0.018 0.01,0.025 0.007,0.006 0.016,0.009 0.027,0.009zm0.173 0.027c-0.01,0 -0.021,-0.002 -0.031,-0.005 -0.009,-0.002 -0.017,-0.006 -0.023,-0.011l0.013 -0.024c0.006,0.005 0.013,0.008 0.021,0.011 0.007,0.002 0.015,0.003 0.023,0.003 0.009,0 0.016,-0.001 0.021,-0.004 0.005,-0.003 0.008,-0.007 0.008,-0.012 0,-0.004 -0.002,-0.007 -0.006,-0.009 -0.004,-0.002 -0.011,-0.004 -0.02,-0.007 -0.008,-0.002 -0.016,-0.005 -0.021,-0.007 -0.006,-0.003 -0.011,-0.006 -0.015,-0.011 -0.004,-0.005 -0.006,-0.011 -0.006,-0.019 0,-0.009 0.003,-0.017 0.008,-0.024 0.005,-0.007 0.012,-0.013 0.022,-0.016 0.009,-0.004 0.02,-0.006 0.032,-0.006 0.01,0 0.018,0.001 0.026,0.003 0.009,0.002 0.016,0.005 0.021,0.009l-0.011 0.024c-0.006,-0.004 -0.011,-0.006 -0.018,-0.008 -0.006,-0.002 -0.013,-0.003 -0.019,-0.003 -0.009,0 -0.016,0.002 -0.022,0.005 -0.005,0.003 -0.007,0.007 -0.007,0.012 0,0.003 0.001,0.005 0.003,0.007 0.002,0.002 0.005,0.004 0.008,0.005 0.004,0.001 0.008,0.003 0.015,0.005 0.008,0.002 0.015,0.004 0.021,0.007 0.005,0.002 0.01,0.006 0.014,0.01 0.004,0.005 0.006,0.011 0.006,0.018 0,0.01 -0.002,0.018 -0.008,0.025 -0.005,0.007 -0.012,0.012 -0.022,0.016 -0.009,0.004 -0.02,0.006 -0.033,0.006z"/>
   <path class="fil2" d="M3.874 0.226l0.287 0 -0.006 0.042 -0.29 0 0.009 -0.042zm-2.305 0.264c-0.034,0 -0.067,-0.006 -0.099,-0.017 -0.031,-0.011 -0.055,-0.026 -0.071,-0.043l0.024 -0.039c0.016,0.017 0.037,0.031 0.065,0.041 0.028,0.01 0.057,0.015 0.086,0.015 0.042,0 0.075,-0.008 0.1,-0.024 0.026,-0.017 0.038,-0.039 0.038,-0.068 0,-0.016 -0.004,-0.029 -0.014,-0.039 -0.009,-0.009 -0.021,-0.017 -0.035,-0.023 -0.015,-0.006 -0.034,-0.013 -0.059,-0.02 -0.029,-0.009 -0.052,-0.017 -0.071,-0.025 -0.018,-0.008 -0.033,-0.019 -0.046,-0.035 -0.013,-0.015 -0.019,-0.035 -0.019,-0.06 0,-0.029 0.008,-0.054 0.024,-0.075 0.016,-0.021 0.038,-0.038 0.066,-0.049 0.029,-0.012 0.061,-0.017 0.098,-0.017 0.028,0 0.055,0.003 0.08,0.01 0.026,0.007 0.048,0.017 0.066,0.03l-0.021 0.04c-0.017,-0.012 -0.037,-0.022 -0.059,-0.028 -0.022,-0.007 -0.045,-0.01 -0.069,-0.01 -0.041,0 -0.074,0.009 -0.099,0.026 -0.025,0.017 -0.038,0.04 -0.038,0.069 0,0.016 0.005,0.029 0.015,0.039 0.01,0.011 0.022,0.019 0.037,0.025 0.014,0.006 0.034,0.012 0.058,0.02 0.029,0.008 0.053,0.016 0.071,0.024 0.018,0.008 0.033,0.019 0.045,0.034 0.013,0.014 0.019,0.033 0.019,0.057 0,0.029 -0.008,0.055 -0.024,0.076 -0.017,0.021 -0.039,0.038 -0.068,0.049 -0.029,0.011 -0.062,0.017 -0.1,0.017zm0.428 -0.431l-0.034 0.167 0.244 0 -0.008 0.042 -0.244 0 -0.035 0.175 0.283 0 -0.009 0.042 -0.331 0 0.094 -0.469 0.322 0 -0.009 0.043 -0.273 0zm0.763 0.09c0,0.048 -0.013,0.087 -0.038,0.117 -0.025,0.031 -0.061,0.052 -0.106,0.062l0.088 0.157 -0.053 0 -0.085 -0.149c-0.005,0 -0.013,0.001 -0.024,0.001l-0.134 0 -0.029 0.148 -0.05 0 0.094 -0.469 0.169 0c0.053,0 0.095,0.011 0.124,0.035 0.029,0.023 0.044,0.056 0.044,0.098zm-0.217 0.145c0.054,0 0.095,-0.012 0.124,-0.036 0.029,-0.024 0.043,-0.059 0.043,-0.105 0,-0.03 -0.01,-0.054 -0.031,-0.07 -0.021,-0.016 -0.051,-0.024 -0.09,-0.024l-0.125 0 -0.048 0.235 0.127 0zm0.773 -0.278l-0.302 0.469 -0.049 0 -0.114 -0.469 0.051 0 0.098 0.407 0.263 -0.407 0.053 0zm0.086 0l0.049 0 -0.094 0.469 -0.049 0 0.094 -0.469zm0.347 0.474c-0.046,0 -0.085,-0.009 -0.118,-0.025 -0.034,-0.016 -0.059,-0.039 -0.076,-0.068 -0.017,-0.03 -0.026,-0.064 -0.026,-0.103 0,-0.052 0.012,-0.099 0.035,-0.142 0.024,-0.043 0.057,-0.077 0.101,-0.102 0.043,-0.026 0.093,-0.038 0.15,-0.038 0.038,0 0.071,0.006 0.1,0.018 0.029,0.011 0.052,0.028 0.067,0.05l-0.035 0.031c-0.03,-0.037 -0.075,-0.055 -0.136,-0.055 -0.046,0 -0.087,0.011 -0.122,0.032 -0.035,0.021 -0.063,0.05 -0.082,0.086 -0.019,0.035 -0.029,0.075 -0.029,0.118 0,0.047 0.015,0.084 0.046,0.112 0.03,0.027 0.073,0.041 0.129,0.041 0.061,0 0.111,-0.018 0.149,-0.055l0.029 0.032c-0.021,0.022 -0.047,0.038 -0.079,0.05 -0.032,0.012 -0.066,0.018 -0.103,0.018zm-0.059 0.143c-0.024,0 -0.042,-0.005 -0.057,-0.015l0.015 -0.026c0.012,0.009 0.027,0.013 0.045,0.013 0.014,0 0.025,-0.003 0.034,-0.01 0.008,-0.006 0.012,-0.015 0.012,-0.026 0,-0.008 -0.004,-0.015 -0.01,-0.019 -0.006,-0.005 -0.015,-0.007 -0.027,-0.007l-0.015 0 0.028 -0.062 0.029 0 -0.017 0.039c0.015,0.002 0.026,0.007 0.034,0.015 0.008,0.009 0.012,0.019 0.012,0.032 0,0.02 -0.007,0.036 -0.023,0.048 -0.015,0.012 -0.035,0.018 -0.06,0.018zm0.547 -0.143c-0.046,0 -0.085,-0.009 -0.118,-0.025 -0.032,-0.016 -0.057,-0.039 -0.074,-0.068 -0.015,-0.025 -0.023,-0.054 -0.025,-0.086l0.049 0c0.004,0.038 0.018,0.069 0.044,0.093 0.03,0.027 0.073,0.041 0.128,0.041 0.045,0 0.086,-0.01 0.12,-0.032 0.035,-0.021 0.062,-0.05 0.081,-0.086 0.019,-0.036 0.029,-0.075 0.029,-0.118 0,-0.046 -0.015,-0.084 -0.045,-0.111 -0.03,-0.028 -0.073,-0.042 -0.128,-0.042 -0.046,0 -0.086,0.011 -0.12,0.032 -0.035,0.021 -0.062,0.05 -0.081,0.086 -0.002,0.003 -0.003,0.006 -0.005,0.009l-0.052 0c0.004,-0.01 0.009,-0.021 0.014,-0.031 0.023,-0.043 0.056,-0.077 0.099,-0.102 0.043,-0.026 0.093,-0.038 0.149,-0.038 0.046,0 0.085,0.008 0.118,0.024 0.032,0.017 0.057,0.039 0.075,0.069 0.017,0.029 0.025,0.063 0.025,0.102 0,0.051 -0.011,0.099 -0.035,0.142 -0.023,0.043 -0.057,0.077 -0.099,0.103 -0.043,0.025 -0.093,0.038 -0.149,0.038zm0.498 0c-0.034,0 -0.067,-0.006 -0.099,-0.017 -0.031,-0.011 -0.055,-0.026 -0.071,-0.043l0.024 -0.039c0.016,0.017 0.037,0.031 0.065,0.041 0.028,0.01 0.056,0.015 0.086,0.015 0.042,0 0.075,-0.008 0.1,-0.024 0.026,-0.017 0.038,-0.039 0.038,-0.068 0,-0.016 -0.005,-0.029 -0.014,-0.039 -0.009,-0.009 -0.021,-0.017 -0.035,-0.023 -0.015,-0.006 -0.034,-0.013 -0.059,-0.02 -0.029,-0.009 -0.053,-0.017 -0.071,-0.025 -0.018,-0.008 -0.033,-0.019 -0.046,-0.035 -0.013,-0.015 -0.019,-0.035 -0.019,-0.06 0,-0.029 0.008,-0.054 0.024,-0.075 0.016,-0.021 0.038,-0.038 0.066,-0.049 0.029,-0.012 0.061,-0.017 0.098,-0.017 0.028,0 0.055,0.003 0.08,0.01 0.026,0.007 0.048,0.017 0.065,0.03l-0.02 0.04c-0.017,-0.012 -0.037,-0.022 -0.059,-0.028 -0.022,-0.007 -0.045,-0.01 -0.069,-0.01 -0.041,0 -0.074,0.009 -0.099,0.026 -0.025,0.017 -0.038,0.04 -0.038,0.069 0,0.016 0.005,0.029 0.015,0.039 0.01,0.011 0.022,0.019 0.037,0.025 0.014,0.006 0.034,0.012 0.058,0.02 0.029,0.008 0.053,0.016 0.071,0.024 0.018,0.008 0.033,0.019 0.045,0.034 0.013,0.014 0.019,0.033 0.019,0.057 0,0.029 -0.008,0.055 -0.024,0.076 -0.017,0.021 -0.039,0.038 -0.068,0.049 -0.029,0.011 -0.062,0.017 -0.1,0.017z"/>
  </g>
 </g>
</svg>
