<?xml version="1.0" encoding="UTF-8"?>
<!DOCTYPE svg PUBLIC "-//W3C//DTD SVG 1.1//EN" "http://www.w3.org/Graphics/SVG/1.1/DTD/svg11.dtd">
<!-- Creator: CorelDRAW 2018 (64 Bit) -->
<svg xmlns="http://www.w3.org/2000/svg" xml:space="preserve" width="64px" height="40px" version="1.1" style="shape-rendering:geometricPrecision; text-rendering:geometricPrecision; image-rendering:optimizeQuality; fill-rule:evenodd; clip-rule:evenodd"
viewBox="0 0 0.167 0.103"
 xmlns:xlink="http://www.w3.org/1999/xlink">
 <defs>
  <style type="text/css">
   <![CDATA[
    .fil1 {fill:white}
    .fil0 {fill:white;fill-rule:nonzero}
    .fil2 {fill:white;fill-opacity:0.501961}
   ]]>
  </style>
 </defs>
 <g id="Camada_x0020_1">
  <metadata id="CorelCorpID_0Corel-Layer"/>
  <g id="marca-EDC-2020.cdr">
   <path class="fil0" d="M0.02 0.093l0.004 0 -0.002 0.008c-0.001,0.001 -0.002,0.001 -0.003,0.001 -0.001,0.001 -0.002,0.001 -0.004,0.001 -0.001,0 -0.003,0 -0.004,-0.001 -0.002,-0.001 -0.003,-0.002 -0.003,-0.003 -0.001,-0.001 -0.001,-0.002 -0.001,-0.004 0,-0.002 0,-0.004 0.001,-0.005 0.001,-0.002 0.002,-0.003 0.004,-0.004 0.002,-0.001 0.004,-0.002 0.006,-0.002 0.002,0 0.003,0.001 0.004,0.001 0.002,0.001 0.003,0.002 0.003,0.003l-0.003 0.002c0,-0.001 -0.001,-0.001 -0.002,-0.002 0,0 -0.001,0 -0.002,0 -0.002,0 -0.003,0 -0.004,0.001 -0.001,0 -0.002,0.001 -0.002,0.002 -0.001,0.001 -0.001,0.003 -0.001,0.004 0,0.001 0,0.002 0.001,0.003 0.001,0.001 0.002,0.001 0.004,0.001 0.001,0 0.002,0 0.003,0l0.001 -0.006zm0.034 -0.003c0,0.002 -0.001,0.003 -0.001,0.005 -0.001,0.001 -0.003,0.002 -0.004,0.002l0.003 0.006 -0.005 0 -0.002 -0.005 -0.004 0 -0.001 0.005 -0.004 0 0.004 -0.018 0.007 0c0.002,0 0.004,0 0.005,0.001 0.001,0.001 0.002,0.003 0.002,0.004zm-0.009 0.004c0.002,0 0.003,0 0.004,-0.001 0,0 0.001,-0.001 0.001,-0.002 0,-0.001 -0.001,-0.002 -0.001,-0.002 -0.001,-0.001 -0.002,-0.001 -0.003,-0.001l-0.003 0 -0.001 0.006 0.003 0zm0.029 0.009c-0.002,0 -0.003,0 -0.004,-0.001 -0.002,-0.001 -0.003,-0.002 -0.003,-0.003 -0.001,-0.001 -0.001,-0.002 -0.001,-0.004 0,-0.002 0,-0.004 0.001,-0.005 0.001,-0.002 0.002,-0.003 0.004,-0.004 0.002,-0.001 0.003,-0.002 0.006,-0.002 0.001,0 0.003,0.001 0.004,0.001 0.002,0.001 0.003,0.002 0.003,0.003 0.001,0.001 0.001,0.003 0.001,0.004 0,0.002 0,0.004 -0.001,0.006 -0.001,0.001 -0.002,0.003 -0.004,0.004 -0.002,0.001 -0.004,0.001 -0.006,0.001zm0.001 -0.004c0.001,0 0.002,0 0.003,0 0.001,-0.001 0.002,-0.002 0.002,-0.003 0.001,-0.001 0.001,-0.002 0.001,-0.004 0,-0.001 0,-0.002 -0.001,-0.003 -0.001,-0.001 -0.002,-0.001 -0.004,-0.001 -0.001,0 -0.002,0 -0.003,0.001 -0.001,0.001 -0.002,0.001 -0.002,0.002 -0.001,0.002 -0.001,0.003 -0.001,0.004 0,0.001 0,0.002 0.001,0.003 0.001,0.001 0.002,0.001 0.004,0.001zm0.03 0.004c-0.002,0 -0.004,-0.001 -0.005,-0.002 -0.001,-0.001 -0.002,-0.002 -0.002,-0.004 0,-0.001 0,-0.001 0,-0.002l0.002 -0.01 0.004 0 -0.002 0.01c0,0 0,0.001 0,0.001 0,0.001 0.001,0.002 0.001,0.003 0.001,0 0.002,0 0.003,0 0.001,0 0.002,0 0.003,-0.001 0,0 0.001,-0.002 0.001,-0.003l0.002 -0.01 0.004 0 -0.002 0.01c-0.001,0.005 -0.004,0.008 -0.009,0.008zm0.033 -0.018c0.002,0 0.004,0 0.005,0.001 0.001,0.001 0.002,0.003 0.002,0.004 0,0.002 0,0.003 -0.001,0.004 -0.001,0.001 -0.002,0.002 -0.003,0.003 -0.001,0 -0.003,0.001 -0.005,0.001l-0.004 0 -0.001 0.005 -0.004 0 0.004 -0.018 0.007 0zm-0.002 0.009c0.002,0 0.003,0 0.004,-0.001 0,0 0.001,-0.001 0.001,-0.002 0,-0.001 0,-0.002 -0.001,-0.002 -0.001,-0.001 -0.001,-0.001 -0.003,-0.001l-0.003 0 -0.001 0.006 0.003 0z"/>
   <path class="fil1" d="M0.129 0.041c0,0.001 0,0.003 0,0.004 0,0.002 0,0.004 0.001,0.006 0.001,0.003 0.004,0.004 0.009,0.004 0,0 0.002,0 0.004,0 0.003,0 0.008,0 0.016,0l-0.002 0.012c-0.003,0.001 -0.006,0.001 -0.01,0.002 -0.003,0 -0.006,0 -0.009,0 -0.002,0 -0.004,0 -0.006,0 -0.004,0 -0.007,-0.001 -0.01,-0.003 -0.003,-0.001 -0.005,-0.004 -0.006,-0.007 -0.002,-0.004 -0.002,-0.009 -0.002,-0.013 0,-0.002 0,-0.003 0,-0.005l0.015 0z"/>
   <path class="fil1" d="M0.123 0.008c0.003,-0.003 0.005,-0.005 0.009,-0.006 0.003,-0.001 0.007,-0.002 0.012,-0.002 0.005,0 0.009,0 0.012,0.001 0.004,0 0.007,0.001 0.011,0.003l-0.002 0.011c-0.008,-0.001 -0.015,-0.001 -0.019,-0.001 0,0 0,0 -0.001,0 0,0 0,0 -0.001,0 0,0 -0.001,0 -0.001,0 -0.001,0 -0.001,0 -0.002,0 -0.001,0 -0.002,0 -0.002,0.001 -0.001,0 -0.001,0 -0.002,0.001 -0.001,0 -0.001,0.001 -0.002,0.001 0,0.001 -0.001,0.002 -0.001,0.003 -0.001,0.001 -0.001,0.002 -0.002,0.004 0,0.001 -0.001,0.003 -0.001,0.005l-0.016 0c0.001,-0.004 0.002,-0.008 0.003,-0.011 0.001,-0.004 0.003,-0.007 0.005,-0.01z"/>
   <path class="fil1" d="M0.013 0.003c0.002,-0.001 0.004,-0.001 0.006,-0.002 0.001,0 0.003,0 0.004,0 0.001,0 0.001,0 0.002,0 0.013,0 0.023,0 0.028,0.001l-0.002 0.013 -0.024 0c-0.003,0 -0.005,0.001 -0.006,0.004 0,0 0,0 0,0.001l-0.001 0.008 0.025 0.001 -0.003 0.012 -0.025 0.001 -0.001 0.008c0,0.002 0,0.004 0.001,0.004 0.001,0.001 0.003,0.001 0.004,0.001l0.024 0 -0.002 0.012c-0.005,0.001 -0.012,0.001 -0.023,0.002l-0.005 0c-0.001,0 -0.001,0 -0.002,0 -0.001,0 -0.002,0 -0.003,0 -0.001,0 -0.002,-0.001 -0.004,-0.002 -0.004,-0.001 -0.006,-0.005 -0.006,-0.01 0,-0.001 0,-0.002 0,-0.003l0.006 -0.039c0.001,-0.006 0.004,-0.01 0.007,-0.012z"/>
   <polygon class="fil2" points="0.056,0.032 0.13,0.032 0.13,0.038 0.055,0.038 "/>
   <path class="fil0" d="M0.089 0.001c0.004,0 0.007,0.001 0.01,0.002 0.002,0.001 0.005,0.003 0.006,0.005 0.002,0.004 0.004,0.01 0.004,0.017 0,0.004 -0.001,0.008 -0.001,0.012 -0.003,0.016 -0.007,0.025 -0.015,0.029 -0.003,0.002 -0.008,0.003 -0.013,0.003l-0.03 0 0.005 -0.028 0.015 0 -0.002 0.015 0.011 0c0.004,0 0.007,-0.002 0.009,-0.006 0.002,-0.003 0.003,-0.008 0.005,-0.015 0,-0.005 0.001,-0.009 0.001,-0.011 0,-0.003 -0.001,-0.005 -0.001,-0.006 -0.001,-0.002 -0.002,-0.003 -0.003,-0.003 -0.001,-0.001 -0.003,-0.001 -0.005,-0.001l-0.011 0 -0.002 0.015 -0.015 0 0.004 -0.028c0,0 0.009,0 0.028,0z"/>
  </g>
 </g>
</svg>
