<?xml version="1.0" encoding="UTF-8"?>
<!DOCTYPE svg PUBLIC "-//W3C//DTD SVG 1.1//EN" "http://www.w3.org/Graphics/SVG/1.1/DTD/svg11.dtd">
<!-- Creator: CorelDRAW 2018 (64 Bit) -->
<svg xmlns="http://www.w3.org/2000/svg" xml:space="preserve" width="46.9194mm" height="16.1682mm" version="1.1" style="shape-rendering:geometricPrecision; text-rendering:geometricPrecision; image-rendering:optimizeQuality; fill-rule:evenodd; clip-rule:evenodd"
viewBox="0 0 672.62 231.78"
 xmlns:xlink="http://www.w3.org/1999/xlink">
 <defs>
  <style type="text/css">
   <![CDATA[
    .fil0 {fill:white}
    .fil2 {fill:white;fill-rule:nonzero}
    .fil1 {fill:white;fill-opacity:0.501961}
   ]]>
  </style>
 </defs>
 <g id="Camada_x0020_1">
  <metadata id="CorelCorpID_0Corel-Layer"/>
  <g id="_2571789865760">
   <g>
    <g>
     <path class="fil0" d="M175.25 65.06c3.17,-4.01 7.09,-6.93 11.75,-8.78 4.67,-1.85 10.57,-2.77 17.7,-2.77 7.13,0 13.01,0.35 17.63,1.06 4.62,0.7 9.62,2.03 14.99,3.96l-2.77 16.9c-12.06,-1.5 -21.22,-2.24 -27.47,-2.24 -0.09,0 -0.2,0 -0.33,0 -0.13,0 -0.62,0 -1.45,0 -0.84,0 -1.61,0.02 -2.31,0.07 -0.71,0.04 -1.67,0.15 -2.91,0.33 -1.23,0.18 -2.18,0.42 -2.84,0.73 -0.66,0.31 -1.5,0.81 -2.51,1.52 -1.01,0.71 -1.83,1.54 -2.44,2.51 -0.62,0.97 -1.34,2.2 -2.18,3.7 -0.84,1.5 -1.52,3.21 -2.05,5.15 -0.65,2.25 -1.25,4.58 -1.8,7l-22.47 0c1.05,-5.43 2.34,-10.38 3.87,-14.86 1.89,-5.5 4.42,-10.26 7.59,-14.26z"/>
     <path class="fil0" d="M183.4 112.01c-0.15,1.78 -0.22,3.41 -0.22,4.89 0,3.7 0.4,6.6 1.19,8.72 1.76,4.31 6.03,6.56 12.81,6.73 0.53,0 2.69,0 6.47,0 3.79,0 11.18,-0.4 22.19,-1.19l-2.64 16.9c-4.67,1.67 -9.25,2.75 -13.73,3.24 -4.49,0.48 -8.69,0.73 -12.61,0.73 -8.22,0 -16.25,0.69 -23.51,-4.09 -4.01,-2.64 -6.89,-6.3 -8.65,-10.96 -2.2,-5.81 -3.3,-12.02 -3.3,-18.62 0,-2.1 0.06,-4.21 0.17,-6.34l21.84 0zm-56.38 -57.32c5.28,0 9.78,0.97 13.52,2.9 3.74,1.94 6.62,4.49 8.64,7.65 3.61,5.89 5.41,13.89 5.41,24 0,4.92 -0.48,10.64 -1.45,17.15 -3.34,21.9 -10.11,35.53 -20.31,40.89 -5.1,2.64 -11.56,3.96 -19.39,3.96l-41.94 0 6.22 -39.23 21.57 0 -3.25 20.5 16.88 0c5.1,0 9.1,-2.42 12,-7.26 2.9,-4.84 5.15,-12.18 6.73,-22.03 0.97,-7.21 1.45,-12.55 1.45,-16.03 0,-3.47 -0.51,-6.24 -1.52,-8.31 -1.01,-2.07 -2.33,-3.5 -3.96,-4.29 -1.63,-0.79 -3.71,-1.19 -6.26,-1.19l-15.96 0 -3.29 20.77 -21.57 0 6.26 -39.49c0,0 13.41,0 40.23,0zm-108 3.31c2.46,-1.32 4.91,-2.22 7.33,-2.71 2.42,-0.48 4.42,-0.73 6.01,-0.73 1.59,0 2.47,0 2.64,0 19.46,0.35 32.97,1.06 40.54,2.11l-2.9 18.09 -34.87 0c-4.32,0 -6.87,1.72 -7.66,5.15 -0.09,0.53 -0.22,1.28 -0.4,2.24l-1.59 10.57 35.13 1.45 -2.91 17.83 -35.53 1.19 -1.85 11.36c-0.53,3.35 0.09,5.37 1.85,6.08 1.32,0.53 3.08,0.79 5.28,0.79l33.68 0 -2.91 17.96c-6.25,0.79 -17.04,1.45 -32.36,1.98 -3.28,0.11 -6.55,0.26 -9.84,0.26 -3.44,0 -6.85,-0.81 -9.97,-2.24 -5.81,-2.73 -8.72,-7.66 -8.72,-14.79 0,-1.41 0.09,-2.91 0.26,-4.49l8.85 -55.47c1.32,-8.36 4.62,-13.91 9.9,-16.64z"/>
     <path class="fil1" d="M79.85 99.03l52.31 0c-0.16,1.32 -0.33,2.72 -0.53,4.19 -0.22,1.36 -0.45,2.67 -0.69,3.94l-52.37 0 1.29 -8.13zm74.2 0l31.43 0 -1.3 8.13 -31.17 0c0.04,-0.26 0.08,-0.51 0.12,-0.77 0.38,-2.58 0.69,-5.03 0.92,-7.36z"/>
    </g>
    <path class="fil2" d="M16.55 203.93c3.42,0 6.06,0.75 7.92,2.25 1.87,1.5 2.8,3.59 2.8,6.28 0,2.3 -0.54,4.3 -1.62,6 -1.08,1.71 -2.62,3.02 -4.62,3.93 -2,0.91 -4.35,1.37 -7.06,1.37l-6.1 0 -1.49 7.55 -6.38 0 5.48 -27.38 11.07 0zm-2.31 14.67c2.11,0 3.74,-0.48 4.89,-1.45 1.15,-0.96 1.72,-2.35 1.72,-4.15 0,-1.3 -0.44,-2.28 -1.31,-2.93 -0.87,-0.65 -2.13,-0.98 -3.77,-0.98l-4.97 0 -1.92 9.5 5.36 0zm31.75 -9.58l-1.17 5.94 12.71 0 -0.98 4.93 -12.75 0 -1.25 6.34 14.94 0 -1.06 5.08 -21.2 0 5.47 -27.38 20.69 0 -1.06 5.08 -14.36 0zm32.03 22.76c-2.16,0 -4.24,-0.29 -6.22,-0.86 -1.98,-0.57 -3.57,-1.3 -4.77,-2.19l2.58 -4.89c1.25,0.91 2.66,1.62 4.22,2.11 1.57,0.5 3.17,0.74 4.81,0.74 1.75,0 3.13,-0.29 4.15,-0.86 1.02,-0.57 1.53,-1.35 1.53,-2.35 0,-0.81 -0.4,-1.43 -1.21,-1.86 -0.81,-0.43 -2.1,-0.89 -3.87,-1.39 -1.77,-0.52 -3.22,-1.02 -4.34,-1.51 -1.12,-0.48 -2.09,-1.21 -2.91,-2.17 -0.82,-0.96 -1.23,-2.24 -1.23,-3.83 0,-1.85 0.51,-3.48 1.55,-4.89 1.03,-1.41 2.49,-2.49 4.38,-3.25 1.89,-0.76 4.09,-1.14 6.59,-1.14 1.85,0 3.6,0.2 5.24,0.61 1.64,0.4 3.05,0.98 4.22,1.74l-2.39 4.85c-1.02,-0.7 -2.16,-1.23 -3.44,-1.58 -1.28,-0.35 -2.61,-0.53 -3.99,-0.53 -1.8,0 -3.22,0.31 -4.26,0.94 -1.04,0.63 -1.57,1.43 -1.57,2.43 0,0.6 0.22,1.1 0.67,1.51 0.44,0.4 1,0.73 1.68,0.98 0.68,0.25 1.63,0.54 2.86,0.88 1.75,0.47 3.18,0.94 4.3,1.43 1.12,0.48 2.08,1.19 2.88,2.11 0.79,0.93 1.19,2.14 1.19,3.66 0,1.88 -0.52,3.51 -1.56,4.91 -1.04,1.39 -2.52,2.48 -4.42,3.25 -1.91,0.77 -4.12,1.15 -6.65,1.15zm31.95 0c-2.16,0 -4.24,-0.29 -6.22,-0.86 -1.98,-0.57 -3.57,-1.3 -4.77,-2.19l2.58 -4.89c1.25,0.91 2.66,1.62 4.22,2.11 1.56,0.5 3.17,0.74 4.81,0.74 1.75,0 3.13,-0.29 4.15,-0.86 1.02,-0.57 1.53,-1.35 1.53,-2.35 0,-0.81 -0.4,-1.43 -1.21,-1.86 -0.81,-0.43 -2.1,-0.89 -3.87,-1.39 -1.77,-0.52 -3.22,-1.02 -4.34,-1.51 -1.12,-0.48 -2.09,-1.21 -2.91,-2.17 -0.82,-0.96 -1.23,-2.24 -1.23,-3.83 0,-1.85 0.51,-3.48 1.54,-4.89 1.03,-1.41 2.49,-2.49 4.38,-3.25 1.89,-0.76 4.09,-1.14 6.59,-1.14 1.85,0 3.6,0.2 5.24,0.61 1.64,0.4 3.05,0.98 4.22,1.74l-2.39 4.85c-1.02,-0.7 -2.16,-1.23 -3.44,-1.58 -1.28,-0.35 -2.61,-0.53 -3.99,-0.53 -1.8,0 -3.22,0.31 -4.26,0.94 -1.04,0.63 -1.56,1.43 -1.56,2.43 0,0.6 0.22,1.1 0.66,1.51 0.44,0.4 1,0.73 1.68,0.98 0.68,0.25 1.63,0.54 2.85,0.88 1.75,0.47 3.18,0.94 4.3,1.43 1.12,0.48 2.08,1.19 2.87,2.11 0.8,0.93 1.19,2.14 1.19,3.66 0,1.88 -0.52,3.51 -1.56,4.91 -1.04,1.39 -2.52,2.48 -4.42,3.25 -1.9,0.77 -4.12,1.15 -6.65,1.15zm36.6 0c-2.74,0 -5.11,-0.5 -7.12,-1.49 -2.01,-0.99 -3.55,-2.39 -4.62,-4.19 -1.07,-1.8 -1.6,-3.87 -1.6,-6.22 0,-3.1 0.71,-5.9 2.13,-8.39 1.42,-2.49 3.42,-4.45 5.99,-5.89 2.57,-1.43 5.51,-2.15 8.82,-2.15 2.74,0 5.11,0.5 7.12,1.49 2.01,0.99 3.55,2.39 4.61,4.19 1.07,1.8 1.6,3.87 1.6,6.22 0,3.1 -0.71,5.9 -2.13,8.39 -1.42,2.49 -3.42,4.45 -5.99,5.89 -2.57,1.43 -5.51,2.15 -8.82,2.15zm0.55 -5.4c2.01,0 3.77,-0.48 5.28,-1.45 1.51,-0.96 2.67,-2.25 3.48,-3.87 0.81,-1.62 1.21,-3.4 1.21,-5.36 0,-2.08 -0.65,-3.75 -1.96,-4.99 -1.3,-1.24 -3.14,-1.86 -5.51,-1.86 -2.01,0 -3.77,0.48 -5.28,1.45 -1.51,0.96 -2.67,2.26 -3.48,3.87 -0.81,1.62 -1.21,3.4 -1.21,5.36 0,2.09 0.65,3.75 1.96,4.99 1.3,1.24 3.14,1.86 5.51,1.86zm44.35 -0.94l-12.75 0 -3.56 5.87 -6.77 0 17.72 -27.38 6.26 0 6.73 27.38 -6.34 0 -1.29 -5.87zm-1.06 -4.81l-2.31 -10.56 -6.45 10.56 8.76 0zm28.08 11.15c-2.16,0 -4.24,-0.29 -6.22,-0.86 -1.98,-0.57 -3.57,-1.3 -4.77,-2.19l2.58 -4.89c1.25,0.91 2.66,1.62 4.22,2.11 1.57,0.5 3.17,0.74 4.81,0.74 1.75,0 3.13,-0.29 4.15,-0.86 1.02,-0.57 1.53,-1.35 1.53,-2.35 0,-0.81 -0.4,-1.43 -1.21,-1.86 -0.81,-0.43 -2.1,-0.89 -3.87,-1.39 -1.77,-0.52 -3.22,-1.02 -4.34,-1.51 -1.12,-0.48 -2.09,-1.21 -2.91,-2.17 -0.82,-0.96 -1.23,-2.24 -1.23,-3.83 0,-1.85 0.51,-3.48 1.55,-4.89 1.03,-1.41 2.49,-2.49 4.38,-3.25 1.89,-0.76 4.09,-1.14 6.59,-1.14 1.85,0 3.6,0.2 5.24,0.61 1.64,0.4 3.05,0.98 4.22,1.74l-2.39 4.85c-1.02,-0.7 -2.16,-1.23 -3.44,-1.58 -1.28,-0.35 -2.61,-0.53 -3.99,-0.53 -1.8,0 -3.22,0.31 -4.26,0.94 -1.04,0.63 -1.57,1.43 -1.57,2.43 0,0.6 0.22,1.1 0.67,1.51 0.44,0.4 1,0.73 1.68,0.98 0.68,0.25 1.63,0.54 2.86,0.88 1.75,0.47 3.18,0.94 4.3,1.43 1.12,0.48 2.08,1.19 2.88,2.11 0.79,0.93 1.19,2.14 1.19,3.66 0,1.88 -0.52,3.51 -1.57,4.91 -1.04,1.39 -2.52,2.48 -4.42,3.25 -1.9,0.77 -4.12,1.15 -6.65,1.15zm55.3 -22.76l-1.17 5.94 12.71 0 -0.98 4.93 -12.75 0 -1.25 6.34 14.94 0 -1.06 5.08 -21.2 0 5.48 -27.38 20.69 0 -1.06 5.08 -14.36 0zm55.38 0l-1.17 5.94 12.71 0 -0.98 4.93 -12.75 0 -1.25 6.34 14.94 0 -1.06 5.08 -21.2 0 5.48 -27.38 20.69 0 -1.06 5.08 -14.35 0zm32.03 22.76c-2.16,0 -4.24,-0.29 -6.22,-0.86 -1.98,-0.57 -3.57,-1.3 -4.77,-2.19l2.58 -4.89c1.25,0.91 2.66,1.62 4.22,2.11 1.57,0.5 3.17,0.74 4.81,0.74 1.75,0 3.13,-0.29 4.15,-0.86 1.02,-0.57 1.53,-1.35 1.53,-2.35 0,-0.81 -0.4,-1.43 -1.21,-1.86 -0.81,-0.43 -2.1,-0.89 -3.87,-1.39 -1.77,-0.52 -3.22,-1.02 -4.34,-1.51 -1.12,-0.48 -2.09,-1.21 -2.91,-2.17 -0.82,-0.96 -1.23,-2.24 -1.23,-3.83 0,-1.85 0.51,-3.48 1.55,-4.89 1.03,-1.41 2.49,-2.49 4.38,-3.25 1.89,-0.76 4.09,-1.14 6.59,-1.14 1.85,0 3.6,0.2 5.24,0.61 1.64,0.4 3.05,0.98 4.22,1.74l-2.39 4.85c-1.02,-0.7 -2.16,-1.23 -3.44,-1.58 -1.28,-0.35 -2.61,-0.53 -3.99,-0.53 -1.8,0 -3.22,0.31 -4.26,0.94 -1.04,0.63 -1.56,1.43 -1.56,2.43 0,0.6 0.22,1.1 0.67,1.51 0.44,0.4 1,0.73 1.68,0.98 0.68,0.25 1.63,0.54 2.86,0.88 1.75,0.47 3.18,0.94 4.3,1.43 1.12,0.48 2.08,1.19 2.87,2.11 0.8,0.93 1.19,2.14 1.19,3.66 0,1.88 -0.52,3.51 -1.57,4.91 -1.04,1.39 -2.52,2.48 -4.42,3.25 -1.9,0.77 -4.12,1.15 -6.65,1.15zm32.11 -22.69l-8.76 0 1.06 -5.16 23.86 0 -1.06 5.16 -8.72 0 -4.46 22.22 -6.34 0 4.42 -22.22zm48.42 3.32c0,2.55 -0.69,4.75 -2.07,6.57 -1.38,1.83 -3.3,3.12 -5.75,3.87l4.77 8.45 -6.69 0 -4.3 -7.67 -5.4 0 -1.53 7.67 -6.38 0 5.47 -27.38 11.15 0c3.39,0 6.02,0.74 7.9,2.23 1.88,1.49 2.82,3.57 2.82,6.26zm-13.07 6.18c2.11,0 3.75,-0.48 4.91,-1.45 1.16,-0.96 1.74,-2.35 1.74,-4.15 0,-1.3 -0.44,-2.28 -1.33,-2.93 -0.89,-0.65 -2.15,-0.98 -3.79,-0.98l-5.01 0 -1.92 9.5 5.4 0zm40.95 6.85l-12.75 0 -3.56 5.87 -6.77 0 17.72 -27.38 6.26 0 6.73 27.38 -6.34 0 -1.29 -5.87zm-1.06 -4.81l-2.31 -10.56 -6.45 10.56 8.76 0zm27.26 -11.54l-8.76 0 1.06 -5.16 23.86 0 -1.06 5.16 -8.72 0 -4.46 22.22 -6.34 0 4.42 -22.22zm31.83 -0.08l-1.17 5.94 12.71 0 -0.98 4.93 -12.75 0 -1.25 6.34 14.94 0 -1.06 5.08 -21.2 0 5.48 -27.38 20.69 0 -1.06 5.08 -14.36 0zm7.74 -12.95l6.73 0 -7.67 5.63 -4.93 0 5.87 -5.63zm36.02 21.12l5.79 0 -2.27 11.26c-1.38,1.07 -2.99,1.89 -4.81,2.47 -1.82,0.57 -3.72,0.86 -5.67,0.86 -2.74,0 -5.12,-0.5 -7.16,-1.49 -2.03,-0.99 -3.61,-2.39 -4.71,-4.19 -1.11,-1.8 -1.66,-3.87 -1.66,-6.22 0,-3.1 0.72,-5.91 2.15,-8.41 1.43,-2.5 3.45,-4.47 6.06,-5.89 2.61,-1.42 5.61,-2.13 9,-2.13 2.61,0 4.87,0.4 6.79,1.21 1.92,0.81 3.46,2 4.63,3.56l-4.54 3.68c-0.91,-1.07 -1.94,-1.84 -3.09,-2.33 -1.15,-0.48 -2.5,-0.72 -4.07,-0.72 -2.09,0 -3.93,0.46 -5.51,1.39 -1.59,0.93 -2.82,2.2 -3.7,3.81 -0.87,1.62 -1.31,3.43 -1.31,5.44 0,2.11 0.68,3.79 2.05,5.03 1.37,1.24 3.33,1.86 5.89,1.86 1.62,0 3.13,-0.33 4.54,-0.98l1.6 -8.21zm21.27 -13.26l6.38 0 -5.48 27.38 -6.38 0 5.47 -27.38zm33.83 21.51l-12.75 0 -3.56 5.87 -6.77 0 17.72 -27.38 6.26 0 6.73 27.38 -6.34 0 -1.29 -5.87zm-1.06 -4.81l-2.31 -10.56 -6.45 10.56 8.76 0z"/>
    <path class="fil2" d="M552.49 56.69l-18.91 94.54 -8.1 0 -45.25 -78.34 -15.67 78.34 -9.86 0 18.91 -94.54 8.1 0 45.25 78.34 15.67 -78.34 9.86 0zm-180.81 42.28l62.52 0 -1.32 8.51 -62.9 0 1.7 -8.51zm-25.09 53.08c-10.81,0 -19.2,-2.7 -25.19,-8.1 -5.99,-5.4 -8.98,-12.92 -8.98,-22.56 0,-3.69 0.36,-7.2 1.08,-10.54l10.8 -54.16 9.86 0 -10.81 53.89c-0.72,3.78 -1.08,6.98 -1.08,9.59 0,7.56 2.16,13.28 6.48,17.15 4.32,3.87 10.54,5.81 18.64,5.81 9.27,0 16.68,-2.63 22.22,-7.9 4.58,-4.36 8.04,-10.74 10.37,-19.13l9.92 0c-6.23,23.96 -20.67,35.95 -43.32,35.95zm38.77 -61.7l6.75 -33.65 9.73 0 -6.66 33.65 -9.81 0zm238.93 -33.65l9.86 0 -18.91 94.54 -9.86 0 18.91 -94.54z"/>
   </g>
   <path class="fil2" d="M662.37 27.48c-3.05,10.07 -14.63,22.61 -25.49,23.63 2.05,0.35 4.16,0.47 6.27,0.36 6.72,-0.35 14.26,-3.85 20.03,-9.88 -1.84,-1.09 -3.07,-3.09 -3.07,-5.38 0,-3.46 2.8,-6.26 6.26,-6.26 3.45,0 6.26,2.8 6.26,6.26 0,3.45 -2.8,6.26 -6.26,6.26 -0.57,0 -1.12,-0.08 -1.64,-0.22 -6.11,6.62 -14.24,10.43 -21.5,10.81 -3.65,0.19 -7.27,-0.3 -10.68,-1.35l-2.29 7.17 -2.97 -1.23 2.25 -7.05c-0.64,-0.27 -1.27,-0.56 -1.89,-0.88 -4.73,-2.39 -8.81,-5.93 -11.63,-10.27 -3.49,-5.37 -5.05,-12.71 -3.57,-19.87 -2.25,-0.95 -3.84,-3.17 -3.84,-5.77 0,-3.45 2.8,-6.26 6.26,-6.26 3.46,0 6.26,2.8 6.26,6.26 0,3.46 -2.8,6.26 -6.26,6.26 -0.3,0 -0.6,-0.02 -0.89,-0.06 -1.36,6.69 0.11,13.57 3.37,18.59 1.67,2.58 3.82,4.86 6.3,6.76 -1.87,-2.65 -3.2,-5.96 -3.83,-9.68 -1.07,-6.31 -0.12,-13.81 3.67,-21.27 0.42,-0.82 1.33,-2.1 2.03,-3.14 -1.52,-1.14 -2.5,-2.96 -2.5,-5 0,-3.45 2.8,-6.26 6.26,-6.26 3.45,0 6.26,2.8 6.26,6.26 0,3.45 -2.8,6.26 -6.26,6.26 -0.84,0 -1.64,-0.17 -2.38,-0.47 -0.69,1.01 -1.59,2.27 -2,3.06 -3.62,7.14 -4.54,14.3 -3.52,20.3 0.93,5.49 3.48,10 7.04,12.63 -1.01,-2.96 -1.71,-5.64 -1.9,-8.67 -0.23,-3.59 0.28,-8.37 1.85,-13.9 -1.84,-1.09 -3.08,-3.09 -3.08,-5.39 0,-3.45 2.8,-6.26 6.26,-6.26 3.45,0 6.26,2.8 6.26,6.26 0,3.45 -2.8,6.26 -6.26,6.26 -0.59,0 -1.17,-0.08 -1.72,-0.24 -1.47,5.26 -1.94,9.79 -1.73,13.17 0.17,2.68 0.77,5.11 1.65,7.76 0.99,-3.88 2.46,-7.83 4.27,-11.75 2.43,-5.28 5.48,-11.24 8.76,-16.25 -1.62,-1.13 -2.68,-3.01 -2.68,-5.14 0,-3.45 2.8,-6.26 6.26,-6.26 3.46,0 6.26,2.8 6.26,6.26 0,3.45 -2.8,6.26 -6.26,6.26 -0.76,0 -1.49,-0.14 -2.17,-0.39 -3.28,4.96 -6.31,10.92 -8.73,16.17 -1.99,4.32 -3.56,8.66 -4.51,12.89 3.48,-0.95 6.46,-2.81 9.05,-5.29 2.8,-2.67 5.16,-6.77 7.21,-10.54 -1.36,-1.15 -2.23,-2.87 -2.23,-4.79 0,-3.46 2.8,-6.26 6.26,-6.26 3.45,0 6.26,2.8 6.26,6.26 0,3.45 -2.8,6.26 -6.26,6.26 -0.97,0 -1.88,-0.22 -2.7,-0.61 -2.11,3.87 -4.55,8.06 -7.45,10.82 -2.18,2.08 -4.63,3.77 -7.41,4.89 11.8,0.59 23.71,-11.76 27.15,-22.35 -2.58,-0.77 -4.46,-3.16 -4.46,-6 0,-3.45 2.8,-6.26 6.26,-6.26 3.46,0 6.26,2.8 6.26,6.26 0,3.45 -2.8,6.26 -6.26,6.26 -0.08,0 -0.16,-0 -0.25,-0.01z"/>
  </g>
 </g>
</svg>
