<?xml version="1.0" encoding="UTF-8"?>
<!DOCTYPE svg PUBLIC "-//W3C//DTD SVG 1.1//EN" "http://www.w3.org/Graphics/SVG/1.1/DTD/svg11.dtd">
<!-- Creator: CorelDRAW 2018 (64 Bit) -->
<svg xmlns="http://www.w3.org/2000/svg" xml:space="preserve" width="83px" height="20px" version="1.1" style="shape-rendering:geometricPrecision; text-rendering:geometricPrecision; image-rendering:optimizeQuality; fill-rule:evenodd; clip-rule:evenodd"
viewBox="0 0 0.387 0.095"
 xmlns:xlink="http://www.w3.org/1999/xlink">
 <defs>
  <style type="text/css">
   <![CDATA[
    .fil0 {fill:#76C04E}
    .fil1 {fill:white;fill-rule:nonzero}
    .fil2 {fill:#76C04E}
   ]]>
  </style>
 </defs>
 <g id="Camada_x0020_1">
  <metadata id="CorelCorpID_0Corel-Layer"/>
  <g id="_3117266042176">
   <rect class="fil0" transform="matrix(0.206173 -0 -0.0414824 0.206173 0.0190578 4.07303E-07)" width="1.786" height="0.459"/>
   <g>
    <path class="fil1" d="M0.087 0.025l-0.009 0.045 -0.011 0 0.007 -0.034 -0.009 0.004 0.001 -0.011 0.011 -0.004 0.01 0zm0.22 0.046c-0.004,0 -0.007,-0.001 -0.011,-0.002 -0.003,-0.001 -0.005,-0.002 -0.007,-0.003l0.004 -0.008c0.002,0.001 0.004,0.002 0.007,0.003 0.002,0.001 0.005,0.001 0.008,0.001 0.003,0 0.005,0 0.007,-0.001 0.001,-0.001 0.002,-0.002 0.002,-0.004 0,-0.001 0,-0.002 -0.002,-0.003 -0.001,-0.001 -0.003,-0.001 -0.006,-0.002 -0.003,-0.001 -0.006,-0.002 -0.007,-0.003 -0.002,-0.001 -0.004,-0.002 -0.005,-0.003 -0.002,-0.002 -0.002,-0.004 -0.002,-0.007 0,-0.003 0.001,-0.006 0.002,-0.008 0.002,-0.002 0.004,-0.004 0.008,-0.005 0.003,-0.002 0.006,-0.002 0.01,-0.002 0.004,0 0.006,0 0.009,0.001 0.003,0.001 0.005,0.001 0.007,0.003l-0.004 0.008c-0.001,-0.001 -0.003,-0.002 -0.005,-0.003 -0.003,0 -0.005,-0.001 -0.007,-0.001 -0.003,0 -0.005,0.001 -0.007,0.002 -0.002,0.001 -0.003,0.002 -0.003,0.004 0,0.001 0.001,0.002 0.001,0.002 0.001,0.001 0.002,0.002 0.003,0.002 0.001,0 0.003,0.001 0.005,0.001 0.003,0.001 0.005,0.002 0.007,0.003 0.002,0.001 0.003,0.002 0.005,0.003 0.001,0.002 0.002,0.004 0.002,0.006 0,0.004 -0.001,0.006 -0.003,0.009 -0.002,0.002 -0.004,0.004 -0.007,0.005 -0.003,0.001 -0.007,0.002 -0.011,0.002zm-0.047 0c-0.005,0 -0.009,-0.001 -0.012,-0.003 -0.003,-0.001 -0.006,-0.004 -0.008,-0.007 -0.002,-0.003 -0.002,-0.006 -0.002,-0.01 0,-0.005 0.001,-0.01 0.003,-0.014 0.002,-0.004 0.006,-0.007 0.01,-0.01 0.004,-0.002 0.009,-0.003 0.015,-0.003 0.004,0 0.008,0.001 0.011,0.002 0.004,0.002 0.006,0.004 0.008,0.007 0.002,0.003 0.003,0.006 0.003,0.01l-0.011 0c0,-0.003 -0.001,-0.005 -0.003,-0.007 -0.002,-0.002 -0.005,-0.003 -0.009,-0.003 -0.004,0 -0.007,0.001 -0.009,0.002 -0.003,0.002 -0.004,0.004 -0.006,0.007 0,0 0,0.001 0,0.001l0 0c-0.001,0 -0.001,0 -0.001,0.001l0 0c0,0 0,0 0,0.001l0 0c0,0 0,0 0,0l0 0 0 0 0 0.001 0 0c0,0 0,0 0,0l0 0 0 0 0 0 0 0 0 0 0 0.001 0 0 -0.001 0 0 0 0 0 0 0 0 0 0 0 0 0 0 0 0 0 0 0 0 0 0 0.001 0 0 0 0 0 0 0 0 0 0 0 0 0 0 0 0 0 0 0 0 0 0 0 0.001 0 0 0 0 0 0 0 0 0 0 0 0 0 0 0 0 0 0 0 0 0 0 0 0 0 0 0 0 0 0.001 0 0 0 0 0 0 0 0 0 0 0 0 0 0 0 0 0 0 0 0 0 0 0 0 0 0 0 0.001 0 0 0 0 0 0 0 0 0 0 0 0 0 0 0 0 0 0 0 0 0 0 0 0 0 0 0 0 0 0 0 0 0 0 0 0 0 0 0 0 0 0 0 0 0 0 0 0 0 0 0 0 0 0 0 0 0 0 0 0 0 0 0 0 0 0 0 0 0 0 0 0 0 0 0 0 0 0 0 0 0 0 0 0 0 0 0 0 0 0 0 0 0 0 0 0 0 0 0 0 0 0 0 0 0 0 0 0 0 0.001 0 0 0 0 0 0 0 0 0 0 0 0 0 0 0 0 0 0c0,0.003 0.001,0.005 0.003,0.007 0.003,0.002 0.006,0.003 0.01,0.003 0.003,0 0.006,-0.001 0.008,-0.002 0.003,-0.002 0.005,-0.004 0.006,-0.007 0,0 0.001,-0.001 0.001,-0.001l0.011 0c-0.001,0.002 -0.002,0.004 -0.003,0.006 -0.002,0.004 -0.005,0.007 -0.01,0.009 -0.004,0.003 -0.009,0.004 -0.014,0.004zm-0.026 -0.046l-0.009 0.045 -0.008 0 -0.017 -0.028 -0.006 0.028 -0.01 0 0.009 -0.045 0.008 0 0.017 0.028 0.006 -0.028 0.01 0zm-0.068 0.035l-0.021 0 -0.006 0.01 -0.011 0 0.029 -0.045 0.011 0 0.011 0.045 -0.011 0 -0.002 -0.01zm-0.002 -0.008l-0.003 -0.017 -0.011 0.017 0.014 0zm-0.049 -0.027l-0.009 0.045 -0.01 0 0.007 -0.034 -0.009 0.004 0.001 -0.011 0.01 -0.004 0.01 0z"/>
    <path class="fil2" d="M0.353 0.043l-0.009 0 0 0.009 0.009 0 0 -0.009zm-0.296 0l-0.021 0 0 0.009 0.021 0 0 -0.009zm0.193 0l0 0 0.027 0 0.001 0 0.001 0 0.002 0 0.001 0 0.001 0 0.002 0 0.001 0 0.002 0 0 0 0.007 0c0.001,0.001 0.001,0.002 0.002,0.003 0.001,0.001 0.003,0.002 0.005,0.003 0.001,0.001 0.004,0.002 0.007,0.003l-0.022 0 -0.002 0 -0.001 0 -0.001 0 -0.002 0 -0.001 0 -0.002 0 -0.001 0 -0.001 0 -0.028 0 0 0 0 0 0 0 0 0 0 0 0 0 0 0 0 0 0 -0.001 0 0 0 0 0 0 0 0 0 0 0 0 0 0 0 0 0 0 0 0 0 0 0 0 0 0 0 0 0 0 0 0 0 0 0 0 0 0 0 0 0 0 0 0 0 0 0 0 0 0 0 0 0 0 0 0 0 0 0 0 0 0 0 0 0 0 0 0 0 0 0 0 0 0 0 0 0 0 0 0 0 0 0 0 0 0 0 0 0 0 0 0 0 0 0 0 0 0 0 0 0 0 0 0 0 0 0 0 0 -0.001 0 0 0 0 0 0 0 0 0 0 0 0 0 0 0 0 0 0 0 -0.001 0 0 0 0 0 0 0 0 0 0 0 0 0 0 0 0 0 0 0 0 0 0 0 -0.001 0 0 0 0 0 0 0 0 0 0 0 0 0 0 0 -0.001 0 0 0 0 0 0 0 0 0 0 0 0 0 0 0 0 0 0 0.001 0 0 0 0 -0.001 0.001 -0.003zm0.062 0l0.028 0 0 0.009 -0.013 0c0,-0.001 -0.001,-0.002 -0.001,-0.003 -0.002,-0.001 -0.003,-0.002 -0.005,-0.003 -0.002,-0.001 -0.004,-0.002 -0.007,-0.003 -0.001,0 -0.001,0 -0.002,0zm-0.063 0.003l0 -0.001 0 0 0 0 0 0 0 0 0 0 0 0 0 0 0 0 0 0 0 0 0 0 0 0 0 0 0 0 0 0 0 0 0 0 0 0 0 0 0 0 0 0 0 0 0 0 0 0 0 0 0 0 0 0 0 0 0 0 0 0 0 0 0 0 0 0 0 0 0 0 0 0 0 0 0 0 0 0 0 0 0 0 0 0 0 0 0 0 0 0 0 0 0 0 0 0 0 0 0 0 0 0 0 -0.001 0 0 0 0 0 0 0 0 0 0 0 0 0 0 0 0 0 0 0 0 0 0 0 0 0 0 0 0 0 0 0 0 0 0 0 0 0 0 0 0 0 0 0 0 0 0 0 0 0 0 0 0 0 0 0 0 0 0 0 0 0 0 0 0 0 0 0 0 0 0 0 0 0 0 0 0 0 0 0 0 0 0 0 0 0 0 0 0 0 0 0 0 0 0 0 0 0 0 0 0 0 0 0 0 0 0 0 0 0 0 0 0 0 0 0 0 0 0 0 0 0 0 0 -0.001 0 0 0 0 0 0 0 0 0 0 0 0 0 0 0 0 0 0 0 0 0 0 0 0 0 0 0 0 0 0 0 0 0 0 0 0 0 0 0 0 0 0 0 0 0 0 0 0 0 0 0 0 0 0 0 0 0 0 0 0 0 0 0.001 0 0 0 0 0 0 0 0 0 0 0 0 0 0 0 0 0 0 0 0 0 0 0 0 0 0 0 0 0 0 0 -0.001 0.003z"/>
   </g>
  </g>
 </g>
</svg>
